C:\Users\I339603\.m2\firstapp\firstapp\application\src\main\java\com\sap\cloud\sdk\tutorial\GetCachedCostCentersByCompanyCodeCommand.java
C:\Users\I339603\.m2\firstapp\firstapp\application\src\main\java\com\sap\cloud\sdk\tutorial\GetCachedCostCentersCommand.java
C:\Users\I339603\.m2\firstapp\firstapp\application\src\main\java\com\sap\cloud\sdk\tutorial\CostCenterDetails.java
C:\Users\I339603\.m2\firstapp\firstapp\application\src\main\java\com\sap\cloud\sdk\tutorial\NorthWindData.java
C:\Users\I339603\.m2\firstapp\firstapp\application\src\main\java\com\sap\cloud\sdk\tutorial\HelloWorldServlet.java
C:\Users\I339603\.m2\firstapp\firstapp\application\src\main\java\com\sap\cloud\sdk\tutorial\CostCenterServlet.java
